{
    "realm": "test",
    "auth-server-url": "https://meal-me.ru/keycloak/",
    "ssl-required": "external",
    "resource": "main-backend-user",
    "public-client": true,
    "verify-token-audience": true,
    "use-resource-role-mappings": true,
    "confidential-port": 0
}